"서비스구분","서비스ID","대분류명","소분류명","서비스상태","서비스명","결제방법","장소명","서비스대상","바로가기URL","장소X좌표","장소Y좌표","서비스개시시작일시","서비스개시종료일시","접수시작일시","접수종료일시","지역명"
"자체","S181228111231636885","체육시설","축구장","예약일시중지","영롱이억새구장(3)**S900000904","무료","영롱이 억새구장>억새구장(3)","제한없음","http://yeyak.seoul.go.kr/reservation/view.web?rsvsvcid=S181228111231636885","","","2018-12-31 00:00:00.0","2020-06-14 00:00:00.0","2020-05-08 13:00:00.0","2020-05-12 23:59:00.0","영등포구"
"자체","S191117141735461587","체육시설","배구장","예약일시중지","2020년 배구장1-양화","유료","양화한강공원>배구장(12)","제한없음","http://yeyak.seoul.go.kr/reservation/view.web?rsvsvcid=S191117141735461587","37.543335133571304","126.89459948384298","2019-12-01 00:00:00.0","2020-12-31 00:00:00.0","2019-12-01 00:00:00.0","2020-12-31 00:00:00.0","영등포구"
"자체","S191117142254293986","체육시설","배구장","예약일시중지","2020년 배구장2-양화","유료","양화한강공원>배구장(12)","제한없음","http://yeyak.seoul.go.kr/reservation/view.web?rsvsvcid=S191117142254293986","37.543335133571304","126.89459948384298","2019-12-01 00:00:00.0","2020-12-31 00:00:00.0","2019-12-01 00:00:00.0","2020-12-31 00:00:00.0","영등포구"
"자체","S181231133230501970","체육시설","족구장","예약일시중지","오목교 족구장(1)","무료","오목교 족구장","제한없음","http://yeyak.seoul.go.kr/reservation/view.web?rsvsvcid=S181231133230501970","","","2018-12-31 00:00:00.0","2020-06-14 00:00:00.0","2020-05-08 13:00:00.0","2020-05-12 23:59:00.0","영등포구"
"자체","S181231133647168144","체육시설","족구장","예약일시중지","오목교 족구장(2)","무료","오목교 족구장","제한없음","http://yeyak.seoul.go.kr/reservation/view.web?rsvsvcid=S181231133647168144","","","2018-12-31 00:00:00.0","2020-06-14 00:00:00.0","2020-05-08 13:00:00.0","2020-05-12 23:59:00.0","영등포구"
"자체","S181231133839965915","체육시설","족구장","예약일시중지","오목교 족구장(3)","무료","오목교 족구장","제한없음","http://yeyak.seoul.go.kr/reservation/view.web?rsvsvcid=S181231133839965915","","","2019-01-01 00:00:00.0","2020-06-14 00:00:00.0","2020-05-08 13:00:00.0","2020-05-12 23:59:00.0","영등포구"
"자체","S181231134057004642","체육시설","족구장","예약일시중지","오목교 족구장 족구장(4)","무료","오목교 족구장","제한없음","http://yeyak.seoul.go.kr/reservation/view.web?rsvsvcid=S181231134057004642","","","2018-12-31 00:00:00.0","2020-06-14 00:00:00.0","2020-05-08 13:00:00.0","2020-05-12 23:59:00.0","영등포구"
"자체","S181228103256995211","체육시설","축구장","예약일시중지","영롱이억새구장(2)**S900000903","무료","영롱이 억새구장>억새구장(2)","제한없음","http://yeyak.seoul.go.kr/reservation/view.web?rsvsvcid=S181228103256995211","","","2018-12-31 00:00:00.0","2020-06-14 00:00:00.0","2020-05-08 13:00:00.0","2020-05-12 23:59:00.0","영등포구"
"자체","S191216135638521684","체육시설","풋살경기장","예약일시중지","2020년 영등포공원 풋살경기장(평일주간)","유료","영등포공원>풋살경기장","청소년성인어린이","http://yeyak.seoul.go.kr/reservation/view.web?rsvsvcid=S191216135638521684","","","2019-12-16 00:00:00.0","2020-12-31 00:00:00.0","2019-12-16 12:00:00.0","2020-12-31 23:59:00.0","영등포구"
"자체","S191216160704131191","체육시설","풋살경기장","예약일시중지","2020년 영등포공원 풋살경기장(평일야간)","유료","영등포공원>풋살경기장","청소년성인어린이","http://yeyak.seoul.go.kr/reservation/view.web?rsvsvcid=S191216160704131191","","","2019-12-16 00:00:00.0","2020-12-31 00:00:00.0","2019-12-16 12:00:00.0","2020-12-31 23:59:00.0","영등포구"
"자체","S191216162310992275","체육시설","풋살경기장","예약일시중지","2020년 영등포공원 풋살경기장 (토일공휴일 주간 야간)","유료","영등포공원>풋살경기장","청소년성인어린이","http://yeyak.seoul.go.kr/reservation/view.web?rsvsvcid=S191216162310992275","","","2019-12-17 00:00:00.0","2020-12-31 00:00:00.0","2019-12-17 09:00:00.0","2020-12-31 11:59:00.0","영등포구"
"자체","S191123124620818047","체육시설","축구장","예약일시중지","2020년 축구장-양화","유료","양화한강공원>축구장","제한없음","http://yeyak.seoul.go.kr/reservation/view.web?rsvsvcid=S191123124620818047","37.54396483198871","126.8934840115831","2019-12-01 00:00:00.0","2020-12-31 00:00:00.0","2019-12-01 00:00:00.0","2020-12-31 00:00:00.0","영등포구"
"자체","S181228095614356186","체육시설","축구장","예약일시중지","영롱이갈대구장(3)**S900000901","무료","영롱이 갈대구장>갈대구장(3)","제한없음","http://yeyak.seoul.go.kr/reservation/view.web?rsvsvcid=S181228095614356186","","","2019-01-01 00:00:00.0","2020-06-14 00:00:00.0","2020-05-08 13:00:00.0","2020-05-24 23:59:00.0","영등포구"
"자체","S181228102441673075","체육시설","축구장","예약일시중지","영롱이억새구장(1)**S900000902","무료","영롱이 억새구장>억새구장(1)","제한없음","http://yeyak.seoul.go.kr/reservation/view.web?rsvsvcid=S181228102441673075","","","2018-12-31 00:00:00.0","2020-06-14 00:00:00.0","2020-05-08 13:00:00.0","2020-05-12 23:59:00.0","영등포구"
"자체","S191116164625258660","체육시설","농구장","예약일시중지","2020년 농구장1-양화","유료","양화한강공원>농구장(12)","제한없음","http://yeyak.seoul.go.kr/reservation/view.web?rsvsvcid=S191116164625258660","37.54355831711085","126.89430383414829","2019-12-01 00:00:00.0","2020-12-31 00:00:00.0","2019-12-01 00:00:00.0","2020-12-31 00:00:00.0","영등포구"
"자체","S191116165832504474","체육시설","농구장","예약일시중지","2020년 농구장2-양화","유료","양화한강공원>농구장(12)","제한없음","http://yeyak.seoul.go.kr/reservation/view.web?rsvsvcid=S191116165832504474","37.54355831711085","126.89430383414829","2019-12-01 00:00:00.0","2020-12-31 00:00:00.0","2019-12-01 00:00:00.0","2020-12-31 00:00:00.0","영등포구"
"자체","S181228141559214841","체육시설","축구장","예약일시중지","대림운동장인조잔디구장(주말공휴일)**S900004181","유료","대림운동장>인조잔디구장","제한없음","http://yeyak.seoul.go.kr/reservation/view.web?rsvsvcid=S181228141559214841","37.49967021226597","126.8939947945106","2018-12-31 00:00:00.0","2020-06-14 00:00:00.0","2020-05-08 13:00:00.0","2020-05-12 23:59:00.0","영등포구"
"자체","S181228131607891777","체육시설","축구장","예약일시중지","대림운동장인조잔디구장(평일)**S900004167","유료","대림운동장>인조잔디구장","제한없음","http://yeyak.seoul.go.kr/reservation/view.web?rsvsvcid=S181228131607891777","37.49967021226597","126.8939947945106","2018-12-31 00:00:00.0","2020-06-14 00:00:00.0","2020-05-08 13:00:00.0","2020-05-12 23:59:00.0","영등포구"