"사진 관리번호","구간 관리번호","사진 제목","사진 파일","사진 파일 저장경로","사진 설명","등록일","최종수정일"
"2","3","혜화문","SCP_1392619004716.jpg","https://seoulcitywall.seoul.go.kr/child/file/getImage2.do?filePhysical=SCP_1392619004716.jpg&filePath=coursephotothumb","","2014-01-13 00:00:00.0","2014-02-17 15:36:44.0"
"3","3","혜화문~낙산초입","SCP_1392619033622.jpg","https://seoulcitywall.seoul.go.kr/child/file/getImage2.do?filePhysical=SCP_1392619033622.jpg&filePath=coursephotothumb","","2014-01-13 00:00:00.0","2014-02-17 15:37:13.0"
"4","3","혜화문~낙산초입","SCP_1392619065807.jpg","https://seoulcitywall.seoul.go.kr/child/file/getImage2.do?filePhysical=SCP_1392619065807.jpg&filePath=coursephotothumb","","2014-01-13 00:00:00.0","2014-02-17 15:37:45.0"
"15","3","낙산 제3전망광장 부근","SCP_1392619105259.jpg","https://seoulcitywall.seoul.go.kr/child/file/getImage2.do?filePhysical=SCP_1392619105259.jpg&filePath=coursephotothumb","","2014-01-15 00:00:00.0","2014-02-17 15:38:25.0"
"16","3","장수마을 부근 암문","SCP_1392619158607.jpg","https://seoulcitywall.seoul.go.kr/child/file/getImage2.do?filePhysical=SCP_1392619158607.jpg&filePath=coursephotothumb","","2014-01-15 00:00:00.0","2014-02-17 15:39:18.0"
"17","3","낙산정상 부근","SCP_1392619182908.jpg","https://seoulcitywall.seoul.go.kr/child/file/getImage2.do?filePhysical=SCP_1392619182908.jpg&filePath=coursephotothumb","","2014-01-15 00:00:00.0","2014-02-17 15:39:42.0"
"18","3","낙산정상 부근","SCP_1392619246998.jpg","https://seoulcitywall.seoul.go.kr/child/file/getImage2.do?filePhysical=SCP_1392619246998.jpg&filePath=coursephotothumb","","2014-01-15 00:00:00.0","2014-02-17 15:40:47.0"
"19","3","낙산성곽","SCP_1392619297519.jpg","https://seoulcitywall.seoul.go.kr/child/file/getImage2.do?filePhysical=SCP_1392619297519.jpg&filePath=coursephotothumb","","2014-01-15 00:00:00.0","2014-02-17 15:41:37.0"
"20","3","흥인지문","SCP_1392619284405.jpg","https://seoulcitywall.seoul.go.kr/child/file/getImage2.do?filePhysical=SCP_1392619284405.jpg&filePath=coursephotothumb","","2014-01-15 00:00:00.0","2014-02-17 15:41:24.0"
"21","3","흥인지문","SCP_1392619359752.jpg","https://seoulcitywall.seoul.go.kr/child/file/getImage2.do?filePhysical=SCP_1392619359752.jpg&filePath=coursephotothumb","","2014-01-15 00:00:00.0","2014-02-17 15:42:39.0"
"22","5","오간수문","SCP_1392619981653.jpg","https://seoulcitywall.seoul.go.kr/child/file/getImage2.do?filePhysical=SCP_1392619981653.jpg&filePath=coursephotothumb","","2014-01-15 00:00:00.0","2014-02-17 15:53:01.0"
"23","5","이간수문","SCP_1392619995191.jpg","https://seoulcitywall.seoul.go.kr/child/file/getImage2.do?filePhysical=SCP_1392619995191.jpg&filePath=coursephotothumb","","2014-01-15 00:00:00.0","2014-02-17 15:53:15.0"
"24","5","동대문역사문화공원과 성곽","SCP_1392620507059.jpg","https://seoulcitywall.seoul.go.kr/child/file/getImage2.do?filePhysical=SCP_1392620507059.jpg&filePath=coursephotothumb","","2014-01-15 00:00:00.0","2014-02-17 16:01:47.0"
"25","5","동대문시장 야경","SCP_1392620018241.jpg","https://seoulcitywall.seoul.go.kr/child/file/getImage2.do?filePhysical=SCP_1392620018241.jpg&filePath=coursephotothumb","","2014-01-15 00:00:00.0","2014-02-17 15:53:38.0"
"26","5","광희문","SCP_1392620030955.jpg","https://seoulcitywall.seoul.go.kr/child/file/getImage2.do?filePhysical=SCP_1392620030955.jpg&filePath=coursephotothumb","","2014-01-15 00:00:00.0","2014-02-17 15:53:50.0"
"27","7","장충체육관 부근 암문 초입","SCP_1392620153275.jpg","https://seoulcitywall.seoul.go.kr/child/file/getImage2.do?filePhysical=SCP_1392620153275.jpg&filePath=coursephotothumb","","2014-01-15 00:00:00.0","2014-02-17 15:55:53.0"
"28","7","암문 부근","SCP_1392620179594.jpg","https://seoulcitywall.seoul.go.kr/child/file/getImage2.do?filePhysical=SCP_1392620179594.jpg&filePath=coursephotothumb","","2014-01-15 00:00:00.0","2014-02-17 15:56:19.0"
"29","7","암문 안쪽구간","SCP_1392620216028.jpg","https://seoulcitywall.seoul.go.kr/child/file/getImage2.do?filePhysical=SCP_1392620216028.jpg&filePath=coursephotothumb","","2014-01-15 00:00:00.0","2014-02-17 15:56:56.0"
"30","7","나무계단길 부근에서본 N서울타워","SCP_1392620286039.jpg","https://seoulcitywall.seoul.go.kr/child/file/getImage2.do?filePhysical=SCP_1392620286039.jpg&filePath=coursephotothumb","","2014-01-15 00:00:00.0","2014-02-17 15:58:06.0"
"31","7","N서울타워에서 본 서울전경","SCP_1392620320923.jpg","https://seoulcitywall.seoul.go.kr/child/file/getImage2.do?filePhysical=SCP_1392620320923.jpg&filePath=coursephotothumb","","2014-01-15 00:00:00.0","2014-02-17 15:58:40.0"
"32","7","목멱산 봉수대 터","SCP_1392620373739.jpg","https://seoulcitywall.seoul.go.kr/child/file/getImage2.do?filePhysical=SCP_1392620373739.jpg&filePath=coursephotothumb","","2014-01-15 00:00:00.0","2014-02-17 15:59:33.0"
"33","7","남산 케이블카 부근","SCP_1392620414874.jpg","https://seoulcitywall.seoul.go.kr/child/file/getImage2.do?filePhysical=SCP_1392620414874.jpg&filePath=coursephotothumb","","2014-01-15 00:00:00.0","2014-02-17 16:00:14.0"
"34","7","백범광장","SCP_1392620548178.jpg","https://seoulcitywall.seoul.go.kr/child/file/getImage2.do?filePhysical=SCP_1392620548178.jpg&filePath=coursephotothumb","","2014-01-15 00:00:00.0","2014-02-17 16:02:28.0"
"35","7","백범광장 부근","SCP_1392620659360.jpg","https://seoulcitywall.seoul.go.kr/child/file/getImage2.do?filePhysical=SCP_1392620659360.jpg&filePath=coursephotothumb","","2014-01-15 00:00:00.0","2014-02-17 16:04:19.0"
"36","7","백범광장 부근","SCP_1392620697122.jpg","https://seoulcitywall.seoul.go.kr/child/file/getImage2.do?filePhysical=SCP_1392620697122.jpg&filePath=coursephotothumb","","2014-01-15 00:00:00.0","2014-02-17 16:04:57.0"
"37","9","숭례문","SCP_1397454483601.jpg","https://seoulcitywall.seoul.go.kr/child/file/getImage2.do?filePhysical=SCP_1397454483601.jpg&filePath=coursephotothumb","","2014-01-15 00:00:00.0","2014-04-14 14:48:03.0"
"38","9","숭례문","SCP_1397454466536.jpg","https://seoulcitywall.seoul.go.kr/child/file/getImage2.do?filePhysical=SCP_1397454466536.jpg&filePath=coursephotothumb","","2014-01-15 00:00:00.0","2014-04-14 14:47:46.0"
"39","9","정동 길 구간","SCP_1392621156291.jpg","https://seoulcitywall.seoul.go.kr/child/file/getImage2.do?filePhysical=SCP_1392621156291.jpg&filePath=coursephotothumb","","2014-01-15 00:00:00.0","2014-02-17 16:12:36.0"
"40","9","배재공원","SCP_1392621181327.jpg","https://seoulcitywall.seoul.go.kr/child/file/getImage2.do?filePhysical=SCP_1392621181327.jpg&filePath=coursephotothumb","","2014-01-15 00:00:00.0","2014-02-17 16:13:01.0"
"41","9","대한?서울 상공회의소 부근","SCP_1392621630212.jpg","https://seoulcitywall.seoul.go.kr/child/file/getImage2.do?filePhysical=SCP_1392621630212.jpg&filePath=coursephotothumb","","2014-01-15 00:00:00.0","2014-02-17 16:20:30.0"
"42","11","돈의문 터","SCP_1392621656548.jpg","https://seoulcitywall.seoul.go.kr/child/file/getImage2.do?filePhysical=SCP_1392621656548.jpg&filePath=coursephotothumb","","2014-01-15 00:00:00.0","2014-02-17 16:20:56.0"
"43","11","홍난파 가옥","SCP_1392624690543.jpg","https://seoulcitywall.seoul.go.kr/child/file/getImage2.do?filePhysical=SCP_1392624690543.jpg&filePath=coursephotothumb","","2014-01-15 00:00:00.0","2014-02-17 17:11:30.0"
"44","11","우수조망명소 부근 암문","SCP_1392624985566.jpg","https://seoulcitywall.seoul.go.kr/child/file/getImage2.do?filePhysical=SCP_1392624985566.jpg&filePath=coursephotothumb","","2014-01-15 00:00:00.0","2014-02-17 17:16:25.0"
"45","11","종로문화체육센터 부근","SCP_1392625017791.jpg","https://seoulcitywall.seoul.go.kr/child/file/getImage2.do?filePhysical=SCP_1392625017791.jpg&filePath=coursephotothumb","","2014-01-15 00:00:00.0","2014-02-17 17:16:57.0"
"46","11","우수조망명소 부근","SCP_1392625063424.jpg","https://seoulcitywall.seoul.go.kr/child/file/getImage2.do?filePhysical=SCP_1392625063424.jpg&filePath=coursephotothumb","","2014-01-15 00:00:00.0","2014-02-17 17:17:43.0"
"47","11","선바위 부근","SCP_1392625117568.jpg","https://seoulcitywall.seoul.go.kr/child/file/getImage2.do?filePhysical=SCP_1392625117568.jpg&filePath=coursephotothumb","","2014-01-15 00:00:00.0","2014-02-17 17:18:37.0"
"48","11","인왕산 곡성 부근","SCP_1392625138754.jpg","https://seoulcitywall.seoul.go.kr/child/file/getImage2.do?filePhysical=SCP_1392625138754.jpg&filePath=coursephotothumb","","2014-01-15 00:00:00.0","2014-02-17 17:18:58.0"
"49","11","치마바위 부근","SCP_1392625163741.jpg","https://seoulcitywall.seoul.go.kr/child/file/getImage2.do?filePhysical=SCP_1392625163741.jpg&filePath=coursephotothumb","","2014-01-15 00:00:00.0","2014-02-17 17:19:23.0"
"50","11","인왕산 정상 부근","SCP_1392625192957.jpg","https://seoulcitywall.seoul.go.kr/child/file/getImage2.do?filePhysical=SCP_1392625192957.jpg&filePath=coursephotothumb","","2014-01-15 00:00:00.0","2014-02-17 17:19:52.0"
"51","11","기차바위 부근","SCP_1392625223070.jpg","https://seoulcitywall.seoul.go.kr/child/file/getImage2.do?filePhysical=SCP_1392625223070.jpg&filePath=coursephotothumb","","2014-01-15 00:00:00.0","2014-02-17 17:20:23.0"
"52","1","와룡공원~말바위안내소","SCP_1392618472601.jpg","https://seoulcitywall.seoul.go.kr/child/file/getImage2.do?filePhysical=SCP_1392618472601.jpg&filePath=coursephotothumb","","2014-01-15 00:00:00.0","2014-02-17 15:31:03.0"
"53","1","창의문","SCP_1392618577198.jpg","https://seoulcitywall.seoul.go.kr/child/file/getImage2.do?filePhysical=SCP_1392618577198.jpg&filePath=coursephotothumb","","2014-01-15 00:00:00.0","2014-02-17 15:29:37.0"
"54","1","창의문~백악마루","SCP_1392618654775.jpg","https://seoulcitywall.seoul.go.kr/child/file/getImage2.do?filePhysical=SCP_1392618654775.jpg&filePath=coursephotothumb","","2014-01-15 00:00:00.0","2014-02-17 15:30:54.0"
"55","1","돌고래쉼터 부근","SCP_1392618727093.jpg","https://seoulcitywall.seoul.go.kr/child/file/getImage2.do?filePhysical=SCP_1392618727093.jpg&filePath=coursephotothumb","","2014-01-15 00:00:00.0","2014-02-17 15:32:07.0"
"56","1","백악쉼터 부근","SCP_1392618759081.jpg","https://seoulcitywall.seoul.go.kr/child/file/getImage2.do?filePhysical=SCP_1392618759081.jpg&filePath=coursephotothumb","","2014-01-15 00:00:00.0","2014-02-17 15:32:39.0"
"57","1","청운대 부근","SCP_1392618792083.jpg","https://seoulcitywall.seoul.go.kr/child/file/getImage2.do?filePhysical=SCP_1392618792083.jpg&filePath=coursephotothumb","","2014-01-15 00:00:00.0","2014-02-17 15:33:12.0"
"58","1","암문 부근","SCP_1392618819343.jpg","https://seoulcitywall.seoul.go.kr/child/file/getImage2.do?filePhysical=SCP_1392618819343.jpg&filePath=coursephotothumb","","2014-01-15 00:00:00.0","2014-02-17 15:33:39.0"
"59","1","숙정문 부근","SCP_1392618873735.jpg","https://seoulcitywall.seoul.go.kr/child/file/getImage2.do?filePhysical=SCP_1392618873735.jpg&filePath=coursephotothumb","","2014-01-15 00:00:00.0","2014-02-17 15:34:33.0"
"60","1","와룡공원 부근","SCP_1392618920529.jpg","https://seoulcitywall.seoul.go.kr/child/file/getImage2.do?filePhysical=SCP_1392618920529.jpg&filePath=coursephotothumb","","2014-01-15 00:00:00.0","2014-02-17 15:35:20.0"
"62","1","혜화동 전시?안내센터(옛 시장공관)","SCP_1490254391325.jpg","https://seoulcitywall.seoul.go.kr/child/file/getImage2.do?filePhysical=SCP_1490254391325.jpg&filePath=coursephotothumb","혜화동 옛 시장공관은 다양한 서울시의 정책이 논의되는 일터이자 서울시장이 하루를 마치고 휴식을 취하는 집이였다. 공관은 국내외의 손님이 초대회는 행사장 이였으며 1981년 박영수 시장부터 2013년까지 역대 서울시장이 거주했다. 한양도성의 성벽을 담장으로 사용하고 있어 철거 논란이 있었으나 역사적 가치를 인정받아 보존하기로 결정하여 한양도성 순성길의 쉼터이자 시민들을 위한 공간으로 재탄생하였다. 전시실에는 순성놀이 기록 혜화동 주변 모형지도 지도로 보는 한양도성과 역대 시장의 영상 및 기증품 등이 전시되어 있다.","2017-03-23 16:33:11.0","2017-03-23 16:40:14.0"